%YAML 1.1
%TAG !u! tag:unity3d.com,2011:
--- !u!1045 &1
EditorBuildSettings:
  m_ObjectHideFlags: 0
  serializedVersion: 2
  m_Scenes:
  - enabled: 1
    path: Assets/Scenes/Menu.unity
    guid: 8a33cd206b3b7634b93337e94110524c
  - enabled: 0
    path: Assets/Scenes/SceneFinal.unity
    guid: b20fc8cbab289f4428ab1252f6dbc535
  - enabled: 1
    path: Assets/Scenes/Cynthia.unity
    guid: 8d80418e1d94d054c96fae3f4638d211
  m_configObjects: {}
