%YAML 1.1
%TAG !u! tag:unity3d.com,2011:
--- !u!114 &11400000
MonoBehaviour:
  m_ObjectHideFlags: 0
  m_CorrespondingSourceObject: {fileID: 0}
  m_PrefabInstance: {fileID: 0}
  m_PrefabAsset: {fileID: 0}
  m_GameObject: {fileID: 0}
  m_Enabled: 1
  m_EditorHideFlags: 0
  m_Script: {fileID: 11500000, guid: 3fbb1e416be9ac24ba93e4382d444b03, type: 3}
  m_Name: 6 yellow
  m_EditorClassIdentifier: 
  spriteCards: {fileID: 4033640805628534030, guid: 81f04c926a6c6d94f9c834bfd2c6cc3e,
    type: 3}
  numberCards: 6
  colorCards: yellow
  bonus: 5
